%YAML 1.1
%TAG !u! tag:unity3d.com,2011:
--- !u!1 &308444033363462403
GameObject:
  m_ObjectHideFlags: 0
  m_CorrespondingSourceObject: {fileID: 0}
  m_PrefabInstance: {fileID: 0}
  m_PrefabAsset: {fileID: 0}
  serializedVersion: 6
  m_Component:
  - component: {fileID: 822518355359794806}
  m_Layer: 0
  m_Name: Cantaro_v001_UVs_OP_Prefab
  m_TagString: Untagged
  m_Icon: {fileID: 0}
  m_NavMeshLayer: 0
  m_StaticEditorFlags: 0
  m_IsActive: 1
--- !u!4 &822518355359794806
Transform:
  m_ObjectHideFlags: 0
  m_CorrespondingSourceObject: {fileID: 0}
  m_PrefabInstance: {fileID: 0}
  m_PrefabAsset: {fileID: 0}
  m_GameObject: {fileID: 308444033363462403}
  m_LocalRotation: {x: 0, y: 0, z: 0, w: 1}
  m_LocalPosition: {x: 0, y: 0, z: 0}
  m_LocalScale: {x: 100, y: 100, z: 100}
  m_Children:
  - {fileID: 5981097907723955498}
  m_Father: {fileID: 0}
  m_RootOrder: 0
  m_LocalEulerAnglesHint: {x: 0, y: 0, z: 0}
--- !u!1001 &5981097907723564970
PrefabInstance:
  m_ObjectHideFlags: 0
  serializedVersion: 2
  m_Modification:
    m_TransformParent: {fileID: 822518355359794806}
    m_Modifications:
    - target: {fileID: 100000, guid: a7b07de8a215bbb45b2ec4c78e30faf1, type: 3}
      propertyPath: m_Name
      value: Cantaro_v001_UVs_OP
      objectReference: {fileID: 0}
    - target: {fileID: 400000, guid: a7b07de8a215bbb45b2ec4c78e30faf1, type: 3}
      propertyPath: m_LocalPosition.x
      value: -0
      objectReference: {fileID: 0}
    - target: {fileID: 400000, guid: a7b07de8a215bbb45b2ec4c78e30faf1, type: 3}
      propertyPath: m_LocalPosition.y
      value: 0
      objectReference: {fileID: 0}
    - target: {fileID: 400000, guid: a7b07de8a215bbb45b2ec4c78e30faf1, type: 3}
      propertyPath: m_LocalPosition.z
      value: 0
      objectReference: {fileID: 0}
    - target: {fileID: 400000, guid: a7b07de8a215bbb45b2ec4c78e30faf1, type: 3}
      propertyPath: m_LocalRotation.x
      value: -0.7071068
      objectReference: {fileID: 0}
    - target: {fileID: 400000, guid: a7b07de8a215bbb45b2ec4c78e30faf1, type: 3}
      propertyPath: m_LocalRotation.y
      value: 0
      objectReference: {fileID: 0}
    - target: {fileID: 400000, guid: a7b07de8a215bbb45b2ec4c78e30faf1, type: 3}
      propertyPath: m_LocalRotation.z
      value: -0
      objectReference: {fileID: 0}
    - target: {fileID: 400000, guid: a7b07de8a215bbb45b2ec4c78e30faf1, type: 3}
      propertyPath: m_LocalRotation.w
      value: 0.7071068
      objectReference: {fileID: 0}
    - target: {fileID: 400000, guid: a7b07de8a215bbb45b2ec4c78e30faf1, type: 3}
      propertyPath: m_RootOrder
      value: 0
      objectReference: {fileID: 0}
    - target: {fileID: 400000, guid: a7b07de8a215bbb45b2ec4c78e30faf1, type: 3}
      propertyPath: m_LocalEulerAnglesHint.x
      value: 0
      objectReference: {fileID: 0}
    - target: {fileID: 400000, guid: a7b07de8a215bbb45b2ec4c78e30faf1, type: 3}
      propertyPath: m_LocalEulerAnglesHint.y
      value: 0
      objectReference: {fileID: 0}
    - target: {fileID: 400000, guid: a7b07de8a215bbb45b2ec4c78e30faf1, type: 3}
      propertyPath: m_LocalEulerAnglesHint.z
      value: 0
      objectReference: {fileID: 0}
    m_RemovedComponents: []
  m_SourcePrefab: {fileID: 100100000, guid: a7b07de8a215bbb45b2ec4c78e30faf1, type: 3}
--- !u!4 &5981097907723955498 stripped
Transform:
  m_CorrespondingSourceObject: {fileID: 400000, guid: a7b07de8a215bbb45b2ec4c78e30faf1,
    type: 3}
  m_PrefabInstance: {fileID: 5981097907723564970}
  m_PrefabAsset: {fileID: 0}
