%YAML 1.1
%TAG !u! tag:unity3d.com,2011:
--- !u!1 &6063054710178281732
GameObject:
  m_ObjectHideFlags: 0
  m_CorrespondingSourceObject: {fileID: 0}
  m_PrefabInstance: {fileID: 0}
  m_PrefabAsset: {fileID: 0}
  serializedVersion: 6
  m_Component:
  - component: {fileID: 4500116877001457094}
  m_Layer: 0
  m_Name: Espinas_Prefab
  m_TagString: Untagged
  m_Icon: {fileID: 0}
  m_NavMeshLayer: 0
  m_StaticEditorFlags: 0
  m_IsActive: 1
--- !u!4 &4500116877001457094
Transform:
  m_ObjectHideFlags: 0
  m_CorrespondingSourceObject: {fileID: 0}
  m_PrefabInstance: {fileID: 0}
  m_PrefabAsset: {fileID: 0}
  m_GameObject: {fileID: 6063054710178281732}
  m_LocalRotation: {x: 0, y: 0, z: 0, w: 1}
  m_LocalPosition: {x: 0, y: 0, z: 0}
  m_LocalScale: {x: 100, y: 100, z: 100}
  m_Children:
  - {fileID: 725980651861373295}
  m_Father: {fileID: 0}
  m_RootOrder: 0
  m_LocalEulerAnglesHint: {x: 0, y: 0, z: 0}
--- !u!1001 &725980651861765103
PrefabInstance:
  m_ObjectHideFlags: 0
  serializedVersion: 2
  m_Modification:
    m_TransformParent: {fileID: 4500116877001457094}
    m_Modifications:
    - target: {fileID: 100000, guid: a05d433f2e9882e4b9a07e9f089759d1, type: 3}
      propertyPath: m_Name
      value: Espinas
      objectReference: {fileID: 0}
    - target: {fileID: 400000, guid: a05d433f2e9882e4b9a07e9f089759d1, type: 3}
      propertyPath: m_LocalPosition.x
      value: -0
      objectReference: {fileID: 0}
    - target: {fileID: 400000, guid: a05d433f2e9882e4b9a07e9f089759d1, type: 3}
      propertyPath: m_LocalPosition.y
      value: 0
      objectReference: {fileID: 0}
    - target: {fileID: 400000, guid: a05d433f2e9882e4b9a07e9f089759d1, type: 3}
      propertyPath: m_LocalPosition.z
      value: 0
      objectReference: {fileID: 0}
    - target: {fileID: 400000, guid: a05d433f2e9882e4b9a07e9f089759d1, type: 3}
      propertyPath: m_LocalRotation.x
      value: 0.000000021855694
      objectReference: {fileID: 0}
    - target: {fileID: 400000, guid: a05d433f2e9882e4b9a07e9f089759d1, type: 3}
      propertyPath: m_LocalRotation.y
      value: -0
      objectReference: {fileID: 0}
    - target: {fileID: 400000, guid: a05d433f2e9882e4b9a07e9f089759d1, type: 3}
      propertyPath: m_LocalRotation.z
      value: -0
      objectReference: {fileID: 0}
    - target: {fileID: 400000, guid: a05d433f2e9882e4b9a07e9f089759d1, type: 3}
      propertyPath: m_LocalRotation.w
      value: 1
      objectReference: {fileID: 0}
    - target: {fileID: 400000, guid: a05d433f2e9882e4b9a07e9f089759d1, type: 3}
      propertyPath: m_RootOrder
      value: 0
      objectReference: {fileID: 0}
    - target: {fileID: 400000, guid: a05d433f2e9882e4b9a07e9f089759d1, type: 3}
      propertyPath: m_LocalEulerAnglesHint.x
      value: 0
      objectReference: {fileID: 0}
    - target: {fileID: 400000, guid: a05d433f2e9882e4b9a07e9f089759d1, type: 3}
      propertyPath: m_LocalEulerAnglesHint.y
      value: 0
      objectReference: {fileID: 0}
    - target: {fileID: 400000, guid: a05d433f2e9882e4b9a07e9f089759d1, type: 3}
      propertyPath: m_LocalEulerAnglesHint.z
      value: 0
      objectReference: {fileID: 0}
    m_RemovedComponents: []
  m_SourcePrefab: {fileID: 100100000, guid: a05d433f2e9882e4b9a07e9f089759d1, type: 3}
--- !u!4 &725980651861373295 stripped
Transform:
  m_CorrespondingSourceObject: {fileID: 400000, guid: a05d433f2e9882e4b9a07e9f089759d1,
    type: 3}
  m_PrefabInstance: {fileID: 725980651861765103}
  m_PrefabAsset: {fileID: 0}
