%YAML 1.1
%TAG !u! tag:unity3d.com,2011:
--- !u!1 &7011881533440161456
GameObject:
  m_ObjectHideFlags: 0
  m_CorrespondingSourceObject: {fileID: 0}
  m_PrefabInstance: {fileID: 0}
  m_PrefabAsset: {fileID: 0}
  serializedVersion: 6
  m_Component:
  - component: {fileID: 6372132489413963905}
  m_Layer: 0
  m_Name: Molcajete_Piedra_Prefab
  m_TagString: Untagged
  m_Icon: {fileID: 0}
  m_NavMeshLayer: 0
  m_StaticEditorFlags: 0
  m_IsActive: 1
--- !u!4 &6372132489413963905
Transform:
  m_ObjectHideFlags: 0
  m_CorrespondingSourceObject: {fileID: 0}
  m_PrefabInstance: {fileID: 0}
  m_PrefabAsset: {fileID: 0}
  m_GameObject: {fileID: 7011881533440161456}
  m_LocalRotation: {x: 0, y: 0, z: 0, w: 1}
  m_LocalPosition: {x: 0, y: 0, z: 0}
  m_LocalScale: {x: 400, y: 400, z: 400}
  m_Children:
  - {fileID: 2516286285353467962}
  m_Father: {fileID: 0}
  m_RootOrder: 0
  m_LocalEulerAnglesHint: {x: 0, y: 0, z: 0}
--- !u!1001 &2516286285353081530
PrefabInstance:
  m_ObjectHideFlags: 0
  serializedVersion: 2
  m_Modification:
    m_TransformParent: {fileID: 6372132489413963905}
    m_Modifications:
    - target: {fileID: 100000, guid: 5c15ee08b745dd742bafe142786d761b, type: 3}
      propertyPath: m_Name
      value: Molcajete_Piedra
      objectReference: {fileID: 0}
    - target: {fileID: 400000, guid: 5c15ee08b745dd742bafe142786d761b, type: 3}
      propertyPath: m_LocalPosition.x
      value: -0
      objectReference: {fileID: 0}
    - target: {fileID: 400000, guid: 5c15ee08b745dd742bafe142786d761b, type: 3}
      propertyPath: m_LocalPosition.y
      value: 0
      objectReference: {fileID: 0}
    - target: {fileID: 400000, guid: 5c15ee08b745dd742bafe142786d761b, type: 3}
      propertyPath: m_LocalPosition.z
      value: 0
      objectReference: {fileID: 0}
    - target: {fileID: 400000, guid: 5c15ee08b745dd742bafe142786d761b, type: 3}
      propertyPath: m_LocalRotation.x
      value: -0.7071068
      objectReference: {fileID: 0}
    - target: {fileID: 400000, guid: 5c15ee08b745dd742bafe142786d761b, type: 3}
      propertyPath: m_LocalRotation.y
      value: 0
      objectReference: {fileID: 0}
    - target: {fileID: 400000, guid: 5c15ee08b745dd742bafe142786d761b, type: 3}
      propertyPath: m_LocalRotation.z
      value: -0
      objectReference: {fileID: 0}
    - target: {fileID: 400000, guid: 5c15ee08b745dd742bafe142786d761b, type: 3}
      propertyPath: m_LocalRotation.w
      value: 0.7071068
      objectReference: {fileID: 0}
    - target: {fileID: 400000, guid: 5c15ee08b745dd742bafe142786d761b, type: 3}
      propertyPath: m_RootOrder
      value: 0
      objectReference: {fileID: 0}
    - target: {fileID: 400000, guid: 5c15ee08b745dd742bafe142786d761b, type: 3}
      propertyPath: m_LocalEulerAnglesHint.x
      value: 0
      objectReference: {fileID: 0}
    - target: {fileID: 400000, guid: 5c15ee08b745dd742bafe142786d761b, type: 3}
      propertyPath: m_LocalEulerAnglesHint.y
      value: 0
      objectReference: {fileID: 0}
    - target: {fileID: 400000, guid: 5c15ee08b745dd742bafe142786d761b, type: 3}
      propertyPath: m_LocalEulerAnglesHint.z
      value: 0
      objectReference: {fileID: 0}
    m_RemovedComponents: []
  m_SourcePrefab: {fileID: 100100000, guid: 5c15ee08b745dd742bafe142786d761b, type: 3}
--- !u!4 &2516286285353467962 stripped
Transform:
  m_CorrespondingSourceObject: {fileID: 400000, guid: 5c15ee08b745dd742bafe142786d761b,
    type: 3}
  m_PrefabInstance: {fileID: 2516286285353081530}
  m_PrefabAsset: {fileID: 0}
