%YAML 1.1
%TAG !u! tag:unity3d.com,2011:
--- !u!1 &5837760046293240526
GameObject:
  m_ObjectHideFlags: 0
  m_CorrespondingSourceObject: {fileID: 0}
  m_PrefabInstance: {fileID: 0}
  m_PrefabAsset: {fileID: 0}
  serializedVersion: 6
  m_Component:
  - component: {fileID: 7699536583912308831}
  m_Layer: 0
  m_Name: Plato_V01_Prefab
  m_TagString: Untagged
  m_Icon: {fileID: 0}
  m_NavMeshLayer: 0
  m_StaticEditorFlags: 0
  m_IsActive: 1
--- !u!4 &7699536583912308831
Transform:
  m_ObjectHideFlags: 0
  m_CorrespondingSourceObject: {fileID: 0}
  m_PrefabInstance: {fileID: 0}
  m_PrefabAsset: {fileID: 0}
  m_GameObject: {fileID: 5837760046293240526}
  m_LocalRotation: {x: 0, y: 0, z: 0, w: 1}
  m_LocalPosition: {x: 0, y: 0, z: 0}
  m_LocalScale: {x: 400, y: 400, z: 400}
  m_Children:
  - {fileID: 8534851871039149168}
  m_Father: {fileID: 0}
  m_RootOrder: 0
  m_LocalEulerAnglesHint: {x: 0, y: 0, z: 0}
--- !u!1001 &8534851871039016688
PrefabInstance:
  m_ObjectHideFlags: 0
  serializedVersion: 2
  m_Modification:
    m_TransformParent: {fileID: 7699536583912308831}
    m_Modifications:
    - target: {fileID: 100000, guid: 96c5bcbc76549954ca501194f11e0dcc, type: 3}
      propertyPath: m_Name
      value: Plato_V01
      objectReference: {fileID: 0}
    - target: {fileID: 400000, guid: 96c5bcbc76549954ca501194f11e0dcc, type: 3}
      propertyPath: m_LocalPosition.x
      value: -0
      objectReference: {fileID: 0}
    - target: {fileID: 400000, guid: 96c5bcbc76549954ca501194f11e0dcc, type: 3}
      propertyPath: m_LocalPosition.y
      value: 0
      objectReference: {fileID: 0}
    - target: {fileID: 400000, guid: 96c5bcbc76549954ca501194f11e0dcc, type: 3}
      propertyPath: m_LocalPosition.z
      value: 0
      objectReference: {fileID: 0}
    - target: {fileID: 400000, guid: 96c5bcbc76549954ca501194f11e0dcc, type: 3}
      propertyPath: m_LocalRotation.x
      value: -0.7071068
      objectReference: {fileID: 0}
    - target: {fileID: 400000, guid: 96c5bcbc76549954ca501194f11e0dcc, type: 3}
      propertyPath: m_LocalRotation.y
      value: 0
      objectReference: {fileID: 0}
    - target: {fileID: 400000, guid: 96c5bcbc76549954ca501194f11e0dcc, type: 3}
      propertyPath: m_LocalRotation.z
      value: -0
      objectReference: {fileID: 0}
    - target: {fileID: 400000, guid: 96c5bcbc76549954ca501194f11e0dcc, type: 3}
      propertyPath: m_LocalRotation.w
      value: 0.7071068
      objectReference: {fileID: 0}
    - target: {fileID: 400000, guid: 96c5bcbc76549954ca501194f11e0dcc, type: 3}
      propertyPath: m_RootOrder
      value: 0
      objectReference: {fileID: 0}
    - target: {fileID: 400000, guid: 96c5bcbc76549954ca501194f11e0dcc, type: 3}
      propertyPath: m_LocalEulerAnglesHint.x
      value: 0
      objectReference: {fileID: 0}
    - target: {fileID: 400000, guid: 96c5bcbc76549954ca501194f11e0dcc, type: 3}
      propertyPath: m_LocalEulerAnglesHint.y
      value: 0
      objectReference: {fileID: 0}
    - target: {fileID: 400000, guid: 96c5bcbc76549954ca501194f11e0dcc, type: 3}
      propertyPath: m_LocalEulerAnglesHint.z
      value: 0
      objectReference: {fileID: 0}
    m_RemovedComponents: []
  m_SourcePrefab: {fileID: 100100000, guid: 96c5bcbc76549954ca501194f11e0dcc, type: 3}
--- !u!4 &8534851871039149168 stripped
Transform:
  m_CorrespondingSourceObject: {fileID: 400000, guid: 96c5bcbc76549954ca501194f11e0dcc,
    type: 3}
  m_PrefabInstance: {fileID: 8534851871039016688}
  m_PrefabAsset: {fileID: 0}
