%YAML 1.1
%TAG !u! tag:unity3d.com,2011:
--- !u!1 &5963234070896381151
GameObject:
  m_ObjectHideFlags: 0
  m_CorrespondingSourceObject: {fileID: 0}
  m_PrefabInstance: {fileID: 0}
  m_PrefabAsset: {fileID: 0}
  serializedVersion: 6
  m_Component:
  - component: {fileID: 5418313771988831486}
  m_Layer: 0
  m_Name: Geo_PE_Pico_Prefab
  m_TagString: Untagged
  m_Icon: {fileID: 0}
  m_NavMeshLayer: 0
  m_StaticEditorFlags: 0
  m_IsActive: 1
--- !u!4 &5418313771988831486
Transform:
  m_ObjectHideFlags: 0
  m_CorrespondingSourceObject: {fileID: 0}
  m_PrefabInstance: {fileID: 0}
  m_PrefabAsset: {fileID: 0}
  m_GameObject: {fileID: 5963234070896381151}
  m_LocalRotation: {x: 0, y: 0, z: 0, w: 1}
  m_LocalPosition: {x: 0, y: 0, z: 0}
  m_LocalScale: {x: 100, y: 100, z: 100}
  m_Children:
  - {fileID: 2959950819951914806}
  m_Father: {fileID: 0}
  m_RootOrder: 0
  m_LocalEulerAnglesHint: {x: 0, y: 0, z: 0}
--- !u!1001 &2959950819951785398
PrefabInstance:
  m_ObjectHideFlags: 0
  serializedVersion: 2
  m_Modification:
    m_TransformParent: {fileID: 5418313771988831486}
    m_Modifications:
    - target: {fileID: 100000, guid: 0035bb0603091b2489521ea66e0ae83f, type: 3}
      propertyPath: m_Name
      value: Geo_PE_Pico
      objectReference: {fileID: 0}
    - target: {fileID: 400000, guid: 0035bb0603091b2489521ea66e0ae83f, type: 3}
      propertyPath: m_LocalPosition.x
      value: 0
      objectReference: {fileID: 0}
    - target: {fileID: 400000, guid: 0035bb0603091b2489521ea66e0ae83f, type: 3}
      propertyPath: m_LocalPosition.y
      value: 0
      objectReference: {fileID: 0}
    - target: {fileID: 400000, guid: 0035bb0603091b2489521ea66e0ae83f, type: 3}
      propertyPath: m_LocalPosition.z
      value: 0
      objectReference: {fileID: 0}
    - target: {fileID: 400000, guid: 0035bb0603091b2489521ea66e0ae83f, type: 3}
      propertyPath: m_LocalRotation.x
      value: -0.7071068
      objectReference: {fileID: 0}
    - target: {fileID: 400000, guid: 0035bb0603091b2489521ea66e0ae83f, type: 3}
      propertyPath: m_LocalRotation.y
      value: 0
      objectReference: {fileID: 0}
    - target: {fileID: 400000, guid: 0035bb0603091b2489521ea66e0ae83f, type: 3}
      propertyPath: m_LocalRotation.z
      value: -0
      objectReference: {fileID: 0}
    - target: {fileID: 400000, guid: 0035bb0603091b2489521ea66e0ae83f, type: 3}
      propertyPath: m_LocalRotation.w
      value: 0.7071068
      objectReference: {fileID: 0}
    - target: {fileID: 400000, guid: 0035bb0603091b2489521ea66e0ae83f, type: 3}
      propertyPath: m_RootOrder
      value: 0
      objectReference: {fileID: 0}
    - target: {fileID: 400000, guid: 0035bb0603091b2489521ea66e0ae83f, type: 3}
      propertyPath: m_LocalEulerAnglesHint.x
      value: 0
      objectReference: {fileID: 0}
    - target: {fileID: 400000, guid: 0035bb0603091b2489521ea66e0ae83f, type: 3}
      propertyPath: m_LocalEulerAnglesHint.y
      value: 0
      objectReference: {fileID: 0}
    - target: {fileID: 400000, guid: 0035bb0603091b2489521ea66e0ae83f, type: 3}
      propertyPath: m_LocalEulerAnglesHint.z
      value: 0
      objectReference: {fileID: 0}
    m_RemovedComponents: []
  m_SourcePrefab: {fileID: 100100000, guid: 0035bb0603091b2489521ea66e0ae83f, type: 3}
--- !u!4 &2959950819951914806 stripped
Transform:
  m_CorrespondingSourceObject: {fileID: 400000, guid: 0035bb0603091b2489521ea66e0ae83f,
    type: 3}
  m_PrefabInstance: {fileID: 2959950819951785398}
  m_PrefabAsset: {fileID: 0}
