%YAML 1.1
%TAG !u! tag:unity3d.com,2011:
--- !u!1 &5676466676797810088
GameObject:
  m_ObjectHideFlags: 0
  m_CorrespondingSourceObject: {fileID: 0}
  m_PrefabInstance: {fileID: 0}
  m_PrefabAsset: {fileID: 0}
  serializedVersion: 6
  m_Component:
  - component: {fileID: 4860429040129093887}
  m_Layer: 0
  m_Name: Mecha Grande Curva UVs_Prefab
  m_TagString: Untagged
  m_Icon: {fileID: 0}
  m_NavMeshLayer: 0
  m_StaticEditorFlags: 0
  m_IsActive: 1
--- !u!4 &4860429040129093887
Transform:
  m_ObjectHideFlags: 0
  m_CorrespondingSourceObject: {fileID: 0}
  m_PrefabInstance: {fileID: 0}
  m_PrefabAsset: {fileID: 0}
  m_GameObject: {fileID: 5676466676797810088}
  m_LocalRotation: {x: 0, y: 0, z: 0, w: 1}
  m_LocalPosition: {x: 0, y: 0, z: 0}
  m_LocalScale: {x: 100, y: 100, z: 100}
  m_Children:
  - {fileID: 7639261287559895009}
  m_Father: {fileID: 0}
  m_RootOrder: 0
  m_LocalEulerAnglesHint: {x: 0, y: 0, z: 0}
--- !u!1001 &7639261287559499105
PrefabInstance:
  m_ObjectHideFlags: 0
  serializedVersion: 2
  m_Modification:
    m_TransformParent: {fileID: 4860429040129093887}
    m_Modifications:
    - target: {fileID: 100000, guid: 49520ca5c73372249bfb5a5cdb6dc728, type: 3}
      propertyPath: m_Name
      value: Mecha Grande Curva UVs
      objectReference: {fileID: 0}
    - target: {fileID: 400000, guid: 49520ca5c73372249bfb5a5cdb6dc728, type: 3}
      propertyPath: m_LocalPosition.x
      value: -0
      objectReference: {fileID: 0}
    - target: {fileID: 400000, guid: 49520ca5c73372249bfb5a5cdb6dc728, type: 3}
      propertyPath: m_LocalPosition.y
      value: 0
      objectReference: {fileID: 0}
    - target: {fileID: 400000, guid: 49520ca5c73372249bfb5a5cdb6dc728, type: 3}
      propertyPath: m_LocalPosition.z
      value: 0
      objectReference: {fileID: 0}
    - target: {fileID: 400000, guid: 49520ca5c73372249bfb5a5cdb6dc728, type: 3}
      propertyPath: m_LocalRotation.x
      value: -0.7071068
      objectReference: {fileID: 0}
    - target: {fileID: 400000, guid: 49520ca5c73372249bfb5a5cdb6dc728, type: 3}
      propertyPath: m_LocalRotation.y
      value: 0
      objectReference: {fileID: 0}
    - target: {fileID: 400000, guid: 49520ca5c73372249bfb5a5cdb6dc728, type: 3}
      propertyPath: m_LocalRotation.z
      value: -0
      objectReference: {fileID: 0}
    - target: {fileID: 400000, guid: 49520ca5c73372249bfb5a5cdb6dc728, type: 3}
      propertyPath: m_LocalRotation.w
      value: 0.7071068
      objectReference: {fileID: 0}
    - target: {fileID: 400000, guid: 49520ca5c73372249bfb5a5cdb6dc728, type: 3}
      propertyPath: m_RootOrder
      value: 0
      objectReference: {fileID: 0}
    - target: {fileID: 400000, guid: 49520ca5c73372249bfb5a5cdb6dc728, type: 3}
      propertyPath: m_LocalEulerAnglesHint.x
      value: 0
      objectReference: {fileID: 0}
    - target: {fileID: 400000, guid: 49520ca5c73372249bfb5a5cdb6dc728, type: 3}
      propertyPath: m_LocalEulerAnglesHint.y
      value: 0
      objectReference: {fileID: 0}
    - target: {fileID: 400000, guid: 49520ca5c73372249bfb5a5cdb6dc728, type: 3}
      propertyPath: m_LocalEulerAnglesHint.z
      value: 0
      objectReference: {fileID: 0}
    m_RemovedComponents: []
  m_SourcePrefab: {fileID: 100100000, guid: 49520ca5c73372249bfb5a5cdb6dc728, type: 3}
--- !u!4 &7639261287559895009 stripped
Transform:
  m_CorrespondingSourceObject: {fileID: 400000, guid: 49520ca5c73372249bfb5a5cdb6dc728,
    type: 3}
  m_PrefabInstance: {fileID: 7639261287559499105}
  m_PrefabAsset: {fileID: 0}
