%YAML 1.1
%TAG !u! tag:unity3d.com,2011:
--- !u!1 &5474386505609397274
GameObject:
  m_ObjectHideFlags: 0
  m_CorrespondingSourceObject: {fileID: 0}
  m_PrefabInstance: {fileID: 0}
  m_PrefabAsset: {fileID: 0}
  serializedVersion: 6
  m_Component:
  - component: {fileID: 8087284597215825563}
  m_Layer: 0
  m_Name: Mecha Mas Curveada UVs_Prefab
  m_TagString: Untagged
  m_Icon: {fileID: 0}
  m_NavMeshLayer: 0
  m_StaticEditorFlags: 0
  m_IsActive: 1
--- !u!4 &8087284597215825563
Transform:
  m_ObjectHideFlags: 0
  m_CorrespondingSourceObject: {fileID: 0}
  m_PrefabInstance: {fileID: 0}
  m_PrefabAsset: {fileID: 0}
  m_GameObject: {fileID: 5474386505609397274}
  m_LocalRotation: {x: 0, y: 0, z: 0, w: 1}
  m_LocalPosition: {x: 0, y: 0, z: 0}
  m_LocalScale: {x: 1, y: 1, z: 1}
  m_Children:
  - {fileID: 3075284880074778704}
  m_Father: {fileID: 0}
  m_RootOrder: 0
  m_LocalEulerAnglesHint: {x: 0, y: 0, z: 0}
--- !u!1001 &3075284880074650320
PrefabInstance:
  m_ObjectHideFlags: 0
  serializedVersion: 2
  m_Modification:
    m_TransformParent: {fileID: 8087284597215825563}
    m_Modifications:
    - target: {fileID: 100000, guid: f27f46bc774ec7546bb0a44c072c3034, type: 3}
      propertyPath: m_Name
      value: Mecha Mas Curveada UVs
      objectReference: {fileID: 0}
    - target: {fileID: 400000, guid: f27f46bc774ec7546bb0a44c072c3034, type: 3}
      propertyPath: m_LocalPosition.x
      value: -0
      objectReference: {fileID: 0}
    - target: {fileID: 400000, guid: f27f46bc774ec7546bb0a44c072c3034, type: 3}
      propertyPath: m_LocalPosition.y
      value: 0
      objectReference: {fileID: 0}
    - target: {fileID: 400000, guid: f27f46bc774ec7546bb0a44c072c3034, type: 3}
      propertyPath: m_LocalPosition.z
      value: 0
      objectReference: {fileID: 0}
    - target: {fileID: 400000, guid: f27f46bc774ec7546bb0a44c072c3034, type: 3}
      propertyPath: m_LocalRotation.x
      value: -0.7071068
      objectReference: {fileID: 0}
    - target: {fileID: 400000, guid: f27f46bc774ec7546bb0a44c072c3034, type: 3}
      propertyPath: m_LocalRotation.y
      value: 0
      objectReference: {fileID: 0}
    - target: {fileID: 400000, guid: f27f46bc774ec7546bb0a44c072c3034, type: 3}
      propertyPath: m_LocalRotation.z
      value: -0
      objectReference: {fileID: 0}
    - target: {fileID: 400000, guid: f27f46bc774ec7546bb0a44c072c3034, type: 3}
      propertyPath: m_LocalRotation.w
      value: 0.7071068
      objectReference: {fileID: 0}
    - target: {fileID: 400000, guid: f27f46bc774ec7546bb0a44c072c3034, type: 3}
      propertyPath: m_RootOrder
      value: 0
      objectReference: {fileID: 0}
    - target: {fileID: 400000, guid: f27f46bc774ec7546bb0a44c072c3034, type: 3}
      propertyPath: m_LocalEulerAnglesHint.x
      value: 0
      objectReference: {fileID: 0}
    - target: {fileID: 400000, guid: f27f46bc774ec7546bb0a44c072c3034, type: 3}
      propertyPath: m_LocalEulerAnglesHint.y
      value: 0
      objectReference: {fileID: 0}
    - target: {fileID: 400000, guid: f27f46bc774ec7546bb0a44c072c3034, type: 3}
      propertyPath: m_LocalEulerAnglesHint.z
      value: 0
      objectReference: {fileID: 0}
    m_RemovedComponents: []
  m_SourcePrefab: {fileID: 100100000, guid: f27f46bc774ec7546bb0a44c072c3034, type: 3}
--- !u!4 &3075284880074778704 stripped
Transform:
  m_CorrespondingSourceObject: {fileID: 400000, guid: f27f46bc774ec7546bb0a44c072c3034,
    type: 3}
  m_PrefabInstance: {fileID: 3075284880074650320}
  m_PrefabAsset: {fileID: 0}
