%YAML 1.1
%TAG !u! tag:unity3d.com,2011:
--- !u!1 &3691849575756653703
GameObject:
  m_ObjectHideFlags: 0
  m_CorrespondingSourceObject: {fileID: 0}
  m_PrefabInstance: {fileID: 0}
  m_PrefabAsset: {fileID: 0}
  serializedVersion: 6
  m_Component:
  - component: {fileID: 8931714433976539943}
  m_Layer: 0
  m_Name: Escritorio_Prefab
  m_TagString: Untagged
  m_Icon: {fileID: 0}
  m_NavMeshLayer: 0
  m_StaticEditorFlags: 0
  m_IsActive: 1
--- !u!4 &8931714433976539943
Transform:
  m_ObjectHideFlags: 0
  m_CorrespondingSourceObject: {fileID: 0}
  m_PrefabInstance: {fileID: 0}
  m_PrefabAsset: {fileID: 0}
  m_GameObject: {fileID: 3691849575756653703}
  m_LocalRotation: {x: 0, y: 0, z: 0, w: 1}
  m_LocalPosition: {x: 0, y: 0, z: 0}
  m_LocalScale: {x: 200, y: 200, z: 200}
  m_Children:
  - {fileID: 1212172467530945165}
  m_Father: {fileID: 0}
  m_RootOrder: 0
  m_LocalEulerAnglesHint: {x: 0, y: 0, z: 0}
--- !u!1001 &1212172467531335693
PrefabInstance:
  m_ObjectHideFlags: 0
  serializedVersion: 2
  m_Modification:
    m_TransformParent: {fileID: 8931714433976539943}
    m_Modifications:
    - target: {fileID: 100000, guid: 0cf91547a8b90264388b806a4d0c59a6, type: 3}
      propertyPath: m_Name
      value: Escritorio
      objectReference: {fileID: 0}
    - target: {fileID: 400000, guid: 0cf91547a8b90264388b806a4d0c59a6, type: 3}
      propertyPath: m_LocalPosition.x
      value: -0
      objectReference: {fileID: 0}
    - target: {fileID: 400000, guid: 0cf91547a8b90264388b806a4d0c59a6, type: 3}
      propertyPath: m_LocalPosition.y
      value: 0
      objectReference: {fileID: 0}
    - target: {fileID: 400000, guid: 0cf91547a8b90264388b806a4d0c59a6, type: 3}
      propertyPath: m_LocalPosition.z
      value: 0
      objectReference: {fileID: 0}
    - target: {fileID: 400000, guid: 0cf91547a8b90264388b806a4d0c59a6, type: 3}
      propertyPath: m_LocalRotation.x
      value: -0.7071068
      objectReference: {fileID: 0}
    - target: {fileID: 400000, guid: 0cf91547a8b90264388b806a4d0c59a6, type: 3}
      propertyPath: m_LocalRotation.y
      value: 0
      objectReference: {fileID: 0}
    - target: {fileID: 400000, guid: 0cf91547a8b90264388b806a4d0c59a6, type: 3}
      propertyPath: m_LocalRotation.z
      value: -0
      objectReference: {fileID: 0}
    - target: {fileID: 400000, guid: 0cf91547a8b90264388b806a4d0c59a6, type: 3}
      propertyPath: m_LocalRotation.w
      value: 0.7071068
      objectReference: {fileID: 0}
    - target: {fileID: 400000, guid: 0cf91547a8b90264388b806a4d0c59a6, type: 3}
      propertyPath: m_RootOrder
      value: 0
      objectReference: {fileID: 0}
    - target: {fileID: 400000, guid: 0cf91547a8b90264388b806a4d0c59a6, type: 3}
      propertyPath: m_LocalEulerAnglesHint.x
      value: 0
      objectReference: {fileID: 0}
    - target: {fileID: 400000, guid: 0cf91547a8b90264388b806a4d0c59a6, type: 3}
      propertyPath: m_LocalEulerAnglesHint.y
      value: 0
      objectReference: {fileID: 0}
    - target: {fileID: 400000, guid: 0cf91547a8b90264388b806a4d0c59a6, type: 3}
      propertyPath: m_LocalEulerAnglesHint.z
      value: 0
      objectReference: {fileID: 0}
    m_RemovedComponents: []
  m_SourcePrefab: {fileID: 100100000, guid: 0cf91547a8b90264388b806a4d0c59a6, type: 3}
--- !u!4 &1212172467530945165 stripped
Transform:
  m_CorrespondingSourceObject: {fileID: 400000, guid: 0cf91547a8b90264388b806a4d0c59a6,
    type: 3}
  m_PrefabInstance: {fileID: 1212172467531335693}
  m_PrefabAsset: {fileID: 0}
